<?xml version="1.0" encoding="UTF-8" standalone="no"?>
<svg
   xmlns:dc="http://purl.org/dc/elements/1.1/"
   xmlns:cc="http://creativecommons.org/ns#"
   xmlns:rdf="http://www.w3.org/1999/02/22-rdf-syntax-ns#"
   xmlns:svg="http://www.w3.org/2000/svg"
   xmlns="http://www.w3.org/2000/svg"
   xmlns:sodipodi="http://sodipodi.sourceforge.net/DTD/sodipodi-0.dtd"
   xmlns:inkscape="http://www.inkscape.org/namespaces/inkscape"
   inkscape:version="1.0 (4035a4fb49, 2020-05-01)"
   sodipodi:docname="logo_pink_distressed.svg"
   id="svg81"
   preserveAspectRatio="xMidYMid meet"
   viewBox="0 0 7470 7190"
   height="719px"
   width="747px"
   version="1.0">
  <metadata
     id="metadata87">
    <rdf:RDF>
      <cc:Work
         rdf:about="">
        <dc:format>image/svg+xml</dc:format>
        <dc:type
           rdf:resource="http://purl.org/dc/dcmitype/StillImage" />
        <dc:title></dc:title>
      </cc:Work>
    </rdf:RDF>
  </metadata>
  <defs
     id="defs85" />
  <sodipodi:namedview
     inkscape:current-layer="layer101"
     inkscape:window-maximized="1"
     inkscape:window-y="31"
     inkscape:window-x="1920"
     inkscape:cy="373.96516"
     inkscape:cx="388.62191"
     inkscape:zoom="1.1390821"
     inkscape:pagecheckerboard="true"
     showgrid="false"
     id="namedview83"
     inkscape:window-height="1015"
     inkscape:window-width="1920"
     inkscape:pageshadow="2"
     inkscape:pageopacity="0"
     guidetolerance="10"
     gridtolerance="10"
     objecttolerance="10"
     borderopacity="1"
     bordercolor="#666666"
     pagecolor="#3a3a3a" />
  <g
     style="fill:#f7a8b8;fill-opacity:1;stroke:#ffffff;stroke-opacity:1"
     stroke="none"
     fill="#ffffff"
     id="layer101">
    <path
       style="fill:#ffd1dc;fill-opacity:1;stroke:#ffffff;stroke-opacity:1"
       id="path2"
       d="M4220 7187 c-3 -3 -70 -8 -150 -12 -80 -4 -163 -9 -185 -11 -22 -2 -65 -6 -97 -9 -118 -10 -531 -97 -552 -116 -5 -4 -15 -5 -22 -2 -8 3 -14 0 -14 -6 0 -6 -6 -11 -14 -11 -18 0 -198 -56 -223 -69 -10 -5 -47 -20 -83 -32 -36 -13 -85 -33 -110 -45 -25 -12 -62 -28 -82 -35 -21 -7 -38 -17 -38 -21 0 -4 -6 -8 -13 -8 -28 0 -309 -155 -427 -235 -44 -30 -80 -51 -80 -47 0 4 -4 2 -8 -3 -4 -6 -41 -35 -82 -64 -98 -71 -279 -220 -358 -296 -142 -135 -272 -270 -272 -281 0 -3 -10 -15 -23 -27 -12 -12 -38 -42 -57 -67 -37 -48 -68 -86 -86 -104 -6 -6 -19 -24 -30 -41 -21 -33 -24 -37 -57 -80 -26 -34 -181 -281 -210 -335 -11 -19 -36 -67 -56 -107 l-38 -72 -179 95 c-98 53 -258 141 -354 196 -206 118 -198 114 -185 101 6 -5 53 -36 105 -68 124 -77 517 -337 554 -368 29 -23 29 -24 13 -57 -10 -18 -17 -39 -17 -47 0 -7 -4 -13 -10 -13 -5 0 -10 -7 -10 -15 0 -8 -4 -23 -9 -33 -15 -27 -38 -85 -46 -112 -4 -14 -13 -38 -20 -55 -7 -16 -23 -64 -35 -105 -13 -41 -27 -79 -32 -84 -4 -6 -8 -20 -8 -31 0 -12 -11 -55 -25 -95 -14 -40 -25 -91 -25 -112 0 -21 -4 -38 -10 -38 -5 0 -10 -15 -10 -34 0 -19 -5 -47 -11 -63 -6 -15 -15 -57 -20 -93 -4 -36 -15 -112 -24 -170 -13 -87 -29 -355 -28 -475 1 -96 15 -347 22 -390 5 -27 7 -55 4 -61 -2 -6 3 -50 11 -98 9 -47 23 -125 32 -173 22 -124 74 -336 87 -351 5 -7 7 -15 4 -19 -4 -3 -3 -11 2 -17 5 -6 21 -51 36 -101 15 -49 32 -96 37 -103 6 -6 7 -12 3 -12 -4 0 -3 -6 2 -13 5 -6 20 -41 33 -77 13 -36 27 -67 30 -70 3 -3 17 -34 30 -70 13 -36 26 -67 29 -70 4 -3 17 -30 31 -60 14 -30 30 -61 37 -67 6 -7 17 -29 23 -48 6 -19 15 -35 19 -35 4 0 12 -15 19 -34 7 -18 21 -44 32 -56 11 -13 20 -28 20 -35 0 -7 9 -20 20 -30 11 -10 20 -23 20 -30 0 -6 8 -20 18 -31 9 -10 22 -29 27 -41 18 -41 138 -200 310 -413 34 -42 307 -313 365 -362 30 -26 66 -56 80 -68 14 -12 38 -31 53 -43 16 -12 35 -28 42 -35 8 -6 16 -12 20 -12 4 0 13 -6 20 -13 8 -6 20 -17 27 -22 80 -63 97 -75 107 -75 6 0 11 -4 11 -10 0 -5 7 -10 15 -10 8 0 15 -3 15 -8 0 -7 30 -25 62 -38 10 -3 18 -10 18 -15 0 -5 6 -9 14 -9 8 0 16 -3 18 -7 4 -10 70 -52 123 -78 22 -11 42 -22 45 -25 4 -5 44 -25 75 -39 6 -2 -43 48 -107 112 -65 64 -118 120 -118 125 0 5 23 81 51 168 28 87 61 191 73 229 l22 70 67 0 c37 0 67 3 67 6 0 4 13 12 29 19 48 19 48 40 0 40 -22 0 -54 7 -70 16 -17 8 -38 13 -46 10 -19 -8 -16 4 42 184 24 74 71 223 105 330 33 107 65 206 70 220 5 14 37 113 70 220 227 718 509 1579 532 1625 16 32 50 65 66 65 8 0 365 -212 793 -471 l779 -471 -15 -28 c-8 -16 -15 -36 -15 -45 0 -14 2 -14 14 -2 8 8 28 20 45 26 28 12 35 10 130 -48 56 -33 134 -76 175 -94 65 -31 259 -134 371 -198 67 -38 26 -6 -90 71 -60 40 -159 110 -220 155 -60 45 -154 108 -207 140 l-98 59 22 23 c24 26 9 32 -17 7 -12 -13 -21 -14 -38 -7 -24 11 -1387 832 -1400 843 -4 4 21 1 55 -7 35 -8 122 -17 193 -20 153 -7 262 10 363 57 75 35 168 121 205 188 83 152 74 355 -23 541 -67 128 -146 214 -290 313 -25 17 -25 17 30 17 209 2 502 64 677 142 37 17 63 23 65 17 6 -18 46 1 42 20 -3 12 11 27 44 49 58 40 159 140 208 208 60 82 120 221 195 447 113 339 163 419 280 448 39 10 53 9 104 -9 100 -35 152 -103 200 -261 l25 -85 -6 65 c-16 167 -87 321 -166 361 -96 49 -227 30 -315 -46 -61 -52 -129 -196 -208 -435 -115 -349 -184 -469 -338 -592 -55 -43 -64 -45 -70 -20 -37 134 -73 232 -87 232 -9 0 -21 5 -28 12 -9 9 -12 8 -12 -5 0 -9 7 -17 16 -17 11 0 15 -8 13 -27 -2 -30 10 -81 43 -175 11 -32 16 -62 13 -68 -4 -6 -32 -22 -62 -35 -139 -62 -338 -107 -548 -125 -151 -12 -475 -13 -475 -1 0 5 18 60 41 123 56 154 152 429 263 753 130 377 207 564 290 700 l24 39 16 -39 c37 -89 39 -92 58 -87 23 6 23 3 -7 87 -13 39 -25 77 -25 86 0 26 152 181 229 233 85 56 238 131 301 145 51 12 374 7 510 -8 47 -5 137 -15 200 -21 63 -6 124 -15 135 -19 20 -9 113 -27 190 -37 22 -4 44 -10 49 -15 6 -5 21 -9 33 -9 13 0 54 -9 91 -21 98 -30 304 -99 330 -110 12 -5 34 -14 50 -20 15 -6 35 -15 44 -20 29 -15 48 -10 48 11 0 27 -46 70 -112 105 -21 11 -38 22 -38 26 0 3 -16 14 -35 25 -19 10 -35 21 -35 25 0 3 -16 14 -35 25 -19 10 -35 22 -35 26 0 5 -9 8 -20 8 -11 0 -20 4 -20 10 0 5 -11 12 -25 16 -14 3 -25 10 -25 15 0 5 -7 9 -15 9 -8 0 -15 3 -15 8 0 4 -20 16 -45 27 -25 11 -45 23 -45 26 0 4 -20 15 -45 26 -25 10 -45 21 -45 26 0 4 -6 7 -12 7 -16 0 -162 72 -166 83 -2 4 -10 7 -18 7 -8 0 -22 4 -32 9 -45 23 -202 81 -220 81 -6 0 -12 5 -12 10 0 6 -11 10 -24 10 -14 0 -28 5 -31 10 -3 6 -17 10 -31 10 -13 0 -32 4 -42 9 -9 5 -35 14 -57 20 -22 6 -69 20 -105 31 -36 12 -87 24 -113 27 -26 3 -50 10 -53 14 -3 5 -23 9 -45 9 -22 0 -49 5 -60 11 -11 5 -86 17 -167 25 -84 9 -150 21 -154 27 -6 9 -8 9 -8 -1 0 -9 -7 -8 -25 4 -18 12 -40 15 -80 12 -36 -3 -55 -1 -55 6 0 6 -4 5 -9 -2 -8 -14 -18 -13 -216 4 -33 3 -63 3 -65 1z m210 -664 c-45 -43 -86 -79 -89 -81 -4 -1 -14 24 -23 57 l-15 59 101 20 c55 11 103 20 105 21 2 0 -33 -34 -79 -76z m-204 1 c-3 -9 -9 -28 -12 -42 -4 -15 -21 -72 -39 -127 -51 -156 -65 -203 -65 -220 0 -8 -11 -37 -24 -63 -13 -26 -38 -94 -56 -152 -31 -99 -251 -739 -284 -825 -40 -106 -140 -376 -191 -515 -31 -85 -66 -182 -79 -215 l-22 -60 -189 -2 c-122 -2 -198 -7 -213 -15 -17 -9 -25 -9 -34 0 -7 7 -33 12 -59 12 -42 0 -48 -3 -51 -22 -2 -15 -10 -23 -23 -23 -14 0 -20 6 -19 23 1 21 -2 22 -105 22 l-106 0 0 -30 0 -30 387 0 387 0 -9 -27 c-4 -16 -37 -108 -73 -206 -69 -189 -93 -229 -163 -262 -30 -14 -39 -14 -93 0 -109 28 -134 41 -506 265 l-160 97 -8 62 c-5 34 -7 64 -5 67 3 2 48 5 100 6 l95 1 0 29 0 28 -103 0 -102 0 -7 63 c-18 167 -69 567 -99 777 l-34 235 142 140 c165 163 221 215 296 272 30 23 64 49 75 58 54 42 207 152 236 170 19 11 49 30 69 43 19 12 53 32 74 43 21 11 44 25 50 30 17 15 76 47 129 71 26 11 47 25 47 29 0 5 5 9 11 9 6 0 49 18 95 40 46 22 95 42 109 46 14 3 28 10 31 15 3 5 10 7 15 4 5 -4 9 -2 9 3 0 4 30 19 68 31 37 13 81 29 97 37 17 7 80 27 140 44 61 17 120 36 132 42 19 9 112 35 137 37 4 1 5 -6 2 -15z m-2106 -1336 c0 -2 11 -84 25 -183 33 -238 85 -653 85 -682 0 -22 -4 -23 -62 -23 -62 0 -64 1 -265 121 -112 67 -203 125 -203 129 0 8 31 67 82 155 19 33 44 76 54 95 10 19 22 37 27 38 4 2 7 10 7 18 0 8 4 14 9 14 5 0 13 10 17 22 3 12 17 33 30 47 13 14 24 31 24 38 0 7 5 13 10 13 6 0 10 5 10 11 0 6 6 17 13 24 26 30 37 44 37 50 0 6 1 7 50 65 16 19 30 38 30 43 0 6 20 11 20 5z m1790 -734 c88 -30 160 -69 215 -118 35 -31 37 -35 18 -36 -19 0 -20 -2 -10 -30 10 -27 16 -30 54 -30 38 0 45 -4 71 -42 80 -116 116 -226 115 -348 -1 -227 -142 -357 -413 -385 -134 -14 -452 43 -509 91 -44 36 -57 76 -41 127 12 42 187 525 256 711 l37 98 66 -6 c36 -4 99 -18 141 -32z m-2082 -74 c67 -40 122 -74 122 -76 0 -2 -81 -4 -180 -4 -199 0 -194 -2 -161 66 10 21 26 56 36 77 16 35 19 37 39 24 11 -7 76 -46 144 -87z m324 -196 c51 -31 94 -57 95 -58 5 -5 32 -283 43 -441 6 -88 12 -181 14 -207 l3 -46 -26 16 c-32 21 -47 32 -72 55 -10 9 -24 17 -29 17 -18 0 -74 31 -90 50 -8 9 -30 20 -49 24 -33 6 -34 5 -17 -12 9 -11 32 -28 51 -38 19 -10 37 -25 40 -34 3 -8 28 -28 57 -44 29 -16 57 -35 61 -43 4 -7 18 -13 30 -13 12 0 27 -4 34 -8 18 -12 33 -307 40 -792 11 -797 -38 -1437 -153 -2035 -37 -191 -33 -179 -55 -159 -11 9 -19 21 -19 26 0 6 -20 33 -44 61 -24 29 -78 104 -120 167 -42 63 -80 120 -85 126 -5 6 -19 29 -30 50 -11 21 -32 57 -46 79 -14 22 -35 61 -46 88 -12 26 -26 47 -30 47 -5 0 -9 5 -9 11 0 14 -30 80 -45 99 -7 8 -18 33 -25 55 -7 22 -20 54 -30 70 -10 17 -28 59 -40 95 -12 36 -26 70 -30 75 -5 6 -21 53 -36 105 -16 52 -32 97 -35 100 -25 18 -156 650 -158 760 0 8 -3 49 -6 90 -21 252 -4 721 30 851 8 30 15 73 15 94 0 21 6 64 14 94 8 31 19 81 25 111 32 153 85 314 105 318 33 7 75 -19 88 -54 9 -26 22 -38 54 -50 24 -9 45 -22 48 -30 3 -8 16 -14 29 -14 14 0 36 -9 51 -21 14 -11 26 -16 26 -10 0 15 -76 61 -118 73 -34 10 -56 28 -99 86 -13 16 -36 32 -53 35 -16 4 -30 12 -30 18 0 6 17 58 37 115 l37 104 253 0 252 0 93 -56z m456 -276 c263 -160 332 -208 408 -283 69 -68 72 -72 83 -140 17 -98 7 -167 -51 -335 -77 -227 -159 -475 -237 -720 -40 -124 -78 -243 -86 -265 -7 -22 -27 -83 -43 -135 -17 -52 -57 -180 -90 -285 -33 -104 -73 -230 -88 -280 -15 -49 -30 -83 -32 -76 -2 6 1 78 7 159 34 456 38 1113 11 1652 -13 249 -48 742 -56 783 -3 15 -3 27 1 27 3 0 81 -46 173 -102z" />
    <path
       style="fill:#ffd1dc;fill-opacity:1;stroke:#ffffff;stroke-opacity:1"
       id="path4"
       d="M3798 4288 c7 -7 12 -20 12 -30 0 -16 10 -18 80 -18 69 0 81 3 90 20 6 11 19 20 30 20 10 0 22 5 25 10 4 6 -39 10 -121 10 -100 0 -125 -3 -116 -12z" />
    <path
       style="fill:#ffd1dc;fill-opacity:1;stroke:#ffffff;stroke-opacity:1"
       id="path6"
       d="M1890 3704 c0 -16 8 -28 25 -36 14 -6 25 -15 25 -19 0 -10 29 -39 39 -39 17 0 -35 88 -61 103 -28 16 -28 16 -28 -9z" />
    <path
       style="fill:#ffd1dc;fill-opacity:1;stroke:#ffffff;stroke-opacity:1"
       id="path8"
       d="M2516 3238 c14 -47 54 -61 54 -19 0 22 -19 41 -43 41 -14 0 -17 -5 -11 -22z" />
    <path
       style="fill:#ffd1dc;fill-opacity:1;stroke:#ffffff;stroke-opacity:1"
       id="path10"
       d="M2692 3112 c9 -35 12 -38 38 -34 15 2 38 -1 51 -7 l24 -12 -23 18 c-13 10 -37 30 -53 46 -40 37 -49 34 -37 -11z" />
    <path
       style="fill:#ffd1dc;fill-opacity:1;stroke:#ffffff;stroke-opacity:1"
       id="path12"
       d="M4437 5978 c9 -29 23 -64 31 -77 15 -22 16 -22 23 -5 13 32 10 53 -10 73 -11 11 -21 27 -23 37 -2 11 -11 20 -20 22 -15 3 -15 -1 -1 -50z" />
    <path
       style="fill:#ffd1dc;fill-opacity:1;stroke:#ffffff;stroke-opacity:1"
       id="path14"
       d="M4493 5800 c2 -8 18 -55 35 -105 17 -49 37 -115 46 -145 17 -63 46 -151 86 -265 16 -44 34 -100 40 -125 16 -66 31 -100 41 -94 5 3 9 14 9 25 0 10 4 19 9 19 10 0 -29 122 -55 171 -8 16 -14 40 -14 54 0 14 -27 105 -61 203 -33 97 -63 187 -66 200 -3 13 -17 31 -32 40 -14 9 -30 21 -34 27 -6 6 -7 4 -4 -5z" />
    <path
       style="fill:#ffd1dc;fill-opacity:1;stroke:#ffffff;stroke-opacity:1"
       id="path16"
       d="M4894 4578 c14 -63 24 -96 39 -125 10 -18 18 -45 18 -60 1 -16 3 -21 6 -11 2 9 13 18 23 20 17 3 16 9 -13 101 -28 85 -34 97 -54 97 -19 0 -22 -4 -19 -22z" />
    <path
       style="fill:#ffd1dc;fill-opacity:1;stroke:#ffffff;stroke-opacity:1"
       id="path18"
       d="M5000 4236 c20 -61 53 -165 74 -231 57 -179 59 -186 77 -196 24 -12 32 -36 35 -104 1 -40 17 -104 47 -195 25 -74 51 -148 56 -165 6 -16 15 -50 21 -75 15 -59 42 -96 63 -84 14 8 12 20 -15 104 -16 52 -35 111 -42 130 -7 19 -22 62 -33 95 -11 33 -25 74 -31 90 -6 17 -29 91 -52 165 -23 74 -50 160 -61 191 -10 31 -19 62 -19 68 0 7 -11 40 -24 74 -13 34 -36 103 -52 153 -27 84 -31 91 -55 91 l-26 0 37 -111z" />
    <path
       style="fill:#ffd1dc;fill-opacity:1;stroke:#ffffff;stroke-opacity:1"
       id="path20"
       d="M4350 4270 c0 -29 1 -30 49 -30 54 0 66 9 56 40 -5 16 -15 20 -56 20 -48 0 -49 -1 -49 -30z" />
    <path
       style="fill:#ffd1dc;fill-opacity:1;stroke:#ffffff;stroke-opacity:1"
       id="path22"
       d="M4557 4293 c-4 -3 -7 -18 -7 -32 l0 -25 20 22 c26 27 55 28 77 2 10 -11 30 -20 45 -20 30 0 31 2 22 38 -6 20 -12 22 -78 22 -40 0 -76 -3 -79 -7z" />
    <path
       style="fill:#ffd1dc;fill-opacity:1;stroke:#ffffff;stroke-opacity:1"
       id="path24"
       d="M5316 4285 c-4 -13 -2 -14 14 -5 23 13 26 20 6 20 -8 0 -16 -7 -20 -15z" />
    <path
       style="fill:#ffd1dc;fill-opacity:1;stroke:#ffffff;stroke-opacity:1"
       id="path26"
       d="M5396 4269 c15 -31 17 -31 67 -25 29 3 57 12 62 19 6 7 19 19 30 25 16 9 1 11 -78 12 l-98 0 17 -31z" />
    <path
       style="fill:#ffd1dc;fill-opacity:1;stroke:#ffffff;stroke-opacity:1"
       id="path28"
       d="M5795 4290 c-3 -6 4 -10 17 -10 13 0 34 -9 48 -20 22 -17 41 -20 168 -20 121 0 142 2 142 15 0 9 7 18 15 21 24 10 17 24 -12 24 -14 0 -34 -7 -44 -16 -16 -15 -20 -15 -50 0 -24 12 -62 16 -155 16 -71 0 -125 -4 -129 -10z" />
    <path
       style="fill:#ffd1dc;fill-opacity:1;stroke:#ffffff;stroke-opacity:1"
       id="path30"
       d="M6256 4286 c3 -7 -2 -21 -11 -30 -15 -15 15 -16 399 -16 283 0 423 -4 439 -11 64 -29 62 -148 -2 -180 l-26 -13 31 -4 c31 -3 132 48 178 90 11 10 23 18 27 18 4 0 10 9 14 19 3 11 24 26 46 35 23 9 44 27 51 41 6 13 19 27 29 30 9 3 23 12 29 20 11 13 -64 15 -598 15 -514 0 -611 -2 -606 -14z" />
    <path
       style="fill:#ffd1dc;fill-opacity:1;stroke:#ffffff;stroke-opacity:1"
       id="path32"
       d="M6844 3882 c-6 -4 -14 -17 -18 -29 -10 -32 -54 -63 -88 -63 -22 0 -32 -7 -44 -34 -9 -18 -31 -41 -48 -49 -31 -16 -31 -16 -5 -16 25 -1 149 82 149 99 0 5 15 14 33 21 38 14 78 79 48 79 -9 0 -21 -4 -27 -8z" />
    <path
       style="fill:#ffd1dc;fill-opacity:1;stroke:#ffffff;stroke-opacity:1"
       id="path34"
       d="M6539 3655 c-19 -13 -44 -30 -56 -36 -13 -7 -23 -22 -23 -34 0 -12 -10 -35 -22 -51 l-23 -29 35 28 c19 15 44 32 55 38 21 11 89 109 76 109 -5 0 -23 -11 -42 -25z" />
    <path
       style="fill:#ffd1dc;fill-opacity:1;stroke:#ffffff;stroke-opacity:1"
       id="path36"
       d="M6165 3388 c-15 -13 -38 -33 -52 -45 -14 -13 -30 -23 -34 -23 -5 0 -9 -4 -9 -10 0 -5 15 -10 33 -10 48 0 116 53 109 86 -5 30 -13 30 -47 2z" />
    <path
       style="fill:#ffd1dc;fill-opacity:1;stroke:#ffffff;stroke-opacity:1"
       id="path38"
       d="M5856 3155 c-15 -14 -31 -25 -36 -25 -12 0 -60 -45 -60 -57 0 -5 -24 -20 -52 -34 -67 -30 -165 -103 -173 -128 -3 -12 -25 -27 -53 -37 -59 -22 -102 -51 -102 -69 0 -8 12 -1 29 16 22 21 39 29 66 29 39 0 85 25 85 46 0 15 31 34 56 34 24 0 110 71 170 142 6 7 21 20 33 28 21 14 77 80 68 80 -2 0 -16 -11 -31 -25z" />
    <path
       style="fill:#ffd1dc;fill-opacity:1;stroke:#ffffff;stroke-opacity:1"
       id="path40"
       d="M3307 2694 c-14 -15 -6 -34 21 -48 15 -8 33 -25 39 -38 6 -13 37 -41 69 -63 32 -22 68 -48 79 -58 40 -36 51 -44 105 -77 30 -19 57 -38 58 -42 2 -5 12 -8 22 -8 24 0 70 -21 70 -31 0 -8 73 -59 84 -59 13 0 -9 40 -25 45 -10 4 -19 10 -19 15 0 5 -27 25 -60 45 -33 20 -60 41 -60 45 0 15 -57 40 -90 40 -33 0 -90 46 -90 72 0 8 -15 19 -33 26 -19 7 -39 23 -45 37 -6 14 -32 35 -56 47 -24 11 -48 30 -53 40 -5 11 -12 16 -16 12z" />
    <path
       style="fill:#ffd1dc;fill-opacity:1;stroke:#ffffff;stroke-opacity:1"
       id="path42"
       d="M5561 2557 c-8 -11 -5 -34 13 -93 30 -100 90 -281 104 -314 6 -14 13 -42 17 -63 6 -37 6 -37 29 -20 25 19 25 12 -12 128 -11 33 -32 101 -47 150 -35 116 -76 225 -85 225 -4 0 -13 -6 -19 -13z" />
    <path
       style="fill:#ffd1dc;fill-opacity:1;stroke:#ffffff;stroke-opacity:1"
       id="path44"
       d="M4556 2214 c-9 -8 -16 -20 -16 -25 0 -5 -12 -12 -27 -16 l-28 -7 34 -8 c39 -11 46 -5 54 40 7 36 5 39 -17 16z" />
    <path
       style="fill:#ffd1dc;fill-opacity:1;stroke:#ffffff;stroke-opacity:1"
       id="path46"
       d="M3947 2198 c7 -25 28 -49 60 -66 18 -10 22 -8 27 10 4 17 -3 29 -27 50 -40 34 -67 37 -60 6z" />
    <path
       style="fill:#ffd1dc;fill-opacity:1;stroke:#ffffff;stroke-opacity:1"
       id="path48"
       d="M5727 1989 c18 -16 53 -20 53 -6 0 9 -11 14 -30 14 -17 0 -27 -4 -23 -8z" />
    <path
       style="fill:#ffd1dc;fill-opacity:1;stroke:#ffffff;stroke-opacity:1"
       id="path50"
       d="M5780 1939 c0 -14 -5 -30 -11 -36 -8 -8 -6 -23 4 -53 8 -25 17 -38 21 -31 5 7 13 8 25 1 16 -8 16 -3 -5 62 -26 80 -34 92 -34 57z" />
    <path
       style="fill:#ffd1dc;fill-opacity:1;stroke:#ffffff;stroke-opacity:1"
       id="path52"
       d="M4280 1940 c0 -8 23 -28 50 -45 27 -16 50 -33 50 -37 0 -3 17 -17 38 -29 20 -13 43 -28 49 -34 43 -36 206 -155 209 -152 1 1 -1 18 -5 37 -6 30 -13 36 -56 52 -28 10 -51 22 -53 27 -9 26 -44 59 -69 64 -16 3 -39 15 -52 26 -13 12 -28 21 -32 21 -4 0 -11 9 -14 20 -4 13 -15 20 -31 20 -28 0 -65 17 -76 34 -5 7 -8 6 -8 -4z" />
    <path
       style="fill:#ffd1dc;fill-opacity:1;stroke:#ffffff;stroke-opacity:1"
       id="path54"
       d="M3930 1760 c-14 -11 -29 -24 -35 -28 -5 -4 -26 -17 -45 -29 -20 -12 -48 -35 -63 -50 -14 -15 -30 -32 -36 -38 -5 -5 -23 -25 -39 -42 -21 -23 -40 -33 -60 -33 -16 0 -40 -9 -53 -20 l-24 -21 32 16 c18 8 44 15 58 15 30 0 91 43 100 69 6 18 45 41 70 41 8 0 40 17 70 37 48 33 55 41 55 70 0 18 -1 33 -2 33 -2 -1 -14 -10 -28 -20z" />
    <path
       style="fill:#ffd1dc;fill-opacity:1;stroke:#ffffff;stroke-opacity:1"
       id="path56"
       d="M5847 1695 c-18 -13 -18 -16 7 -96 14 -45 26 -85 26 -89 0 -4 9 -29 21 -54 17 -39 23 -45 35 -35 20 17 17 53 -6 74 -11 10 -19 28 -19 39 4 44 -1 66 -16 66 -8 0 -22 12 -32 26 -16 25 -16 27 1 39 12 9 15 18 9 28 -7 13 -11 13 -26 2z" />
    <path
       style="fill:#ffd1dc;fill-opacity:1;stroke:#ffffff;stroke-opacity:1"
       id="path58"
       d="M4735 1594 c9 -9 19 -13 23 -10 3 4 0 11 -8 16 -24 15 -33 11 -15 -6z" />
    <path
       style="fill:#ffd1dc;fill-opacity:1;stroke:#ffffff;stroke-opacity:1"
       id="path60"
       d="M4865 1509 c3 -3 19 -9 37 -12 18 -3 42 -8 53 -12 l20 -7 -20 14 c-20 15 -97 30 -90 17z" />
    <path
       style="fill:#ffd1dc;fill-opacity:1;stroke:#ffffff;stroke-opacity:1"
       id="path62"
       d="M5006 1422 c4 -15 7 -27 8 -28 1 0 19 -14 41 -31 42 -32 115 -59 115 -42 0 5 -15 16 -32 25 -18 9 -42 29 -53 46 -11 17 -35 36 -53 44 -32 13 -32 13 -26 -14z" />
    <path
       style="fill:#ffd1dc;fill-opacity:1;stroke:#ffffff;stroke-opacity:1"
       id="path64"
       d="M3402 1370 c-7 -11 -32 -29 -57 -41 -24 -11 -47 -28 -50 -38 -3 -9 -32 -30 -66 -47 l-60 -30 55 1 c37 1 62 7 73 18 50 46 64 57 91 71 23 12 31 24 34 51 5 40 -1 44 -20 15z" />
    <path
       style="fill:#ffd1dc;fill-opacity:1;stroke:#ffffff;stroke-opacity:1"
       id="path66"
       d="M5969 1294 c-10 -13 -8 -30 15 -102 40 -125 40 -125 68 -128 l26 -2 -13 49 c-8 28 -19 56 -25 64 -6 7 -10 19 -8 27 4 17 -31 108 -42 108 -4 0 -13 -7 -21 -16z" />
    <path
       style="fill:#ffd1dc;fill-opacity:1;stroke:#ffffff;stroke-opacity:1"
       id="path68"
       d="M5219 1247 c8 -11 28 -17 53 -17 30 0 46 -7 69 -29 16 -16 29 -38 29 -49 0 -16 17 -32 35 -32 1 0 -6 18 -17 40 -26 53 -62 80 -105 80 -19 0 -44 5 -56 12 -20 10 -21 10 -8 -5z" />
    <path
       style="fill:#ffd1dc;fill-opacity:1;stroke:#ffffff;stroke-opacity:1"
       id="path70"
       d="M3074 1133 c-18 -9 -35 -28 -42 -48 -12 -32 -51 -56 -115 -70 -24 -5 -76 -49 -115 -99 -25 -31 23 -18 50 14 13 16 50 41 81 55 31 13 65 33 75 42 10 10 29 25 41 33 42 28 49 35 55 63 4 15 5 27 4 26 -2 0 -17 -7 -34 -16z" />
    <path
       style="fill:#ffd1dc;fill-opacity:1;stroke:#ffffff;stroke-opacity:1"
       id="path72"
       d="M6083 979 c20 -12 24 -67 5 -74 -7 -3 -14 -17 -15 -31 0 -15 -7 -37 -13 -49 -10 -19 -10 -29 1 -54 8 -17 17 -31 20 -31 4 0 9 -9 12 -21 4 -16 11 -19 27 -14 28 9 51 -11 44 -40 -5 -20 -3 -22 21 -17 23 4 26 8 20 30 -3 14 -14 33 -24 41 -10 9 -28 36 -40 60 -18 38 -19 48 -8 65 20 29 -19 146 -48 145 -18 0 -19 0 -2 -10z" />
    <path
       style="fill:#ffd1dc;fill-opacity:1;stroke:#ffffff;stroke-opacity:1"
       id="path74"
       d="M5740 887 c0 -7 15 -21 34 -31 18 -10 39 -28 46 -41 7 -13 19 -26 27 -29 9 -4 7 4 -6 20 -12 15 -21 35 -21 45 0 20 -9 27 -50 39 -21 6 -30 5 -30 -3z" />
    <path
       style="fill:#ffd1dc;fill-opacity:1;stroke:#ffffff;stroke-opacity:1"
       id="path76"
       d="M5877 767 c2 -4 19 -14 36 -23 18 -9 42 -27 55 -40 41 -40 61 -12 33 47 -12 24 -18 26 -71 25 -32 -1 -56 -4 -53 -9z" />
    <path
       style="fill:#ffd1dc;fill-opacity:1;stroke:#ffffff;stroke-opacity:1"
       id="path78"
       d="M6170 600 c0 -6 11 -16 25 -22 14 -6 30 -26 37 -45 7 -18 16 -33 21 -33 5 0 6 8 2 18 -3 9 -9 29 -12 45 -4 17 -12 27 -24 27 -10 0 -21 5 -24 10 -8 13 -25 13 -25 0z" />
  </g>
</svg>
